Emma,SMITH,Emma.SMITH@staff.com,(698) 933-8216,(351) 967-4014,Recruiter
Olivia,JONES,Olivia.JONES@staff.com,(651) 104-6665,(408) 291-8973,Human Resources Assistant
Ava,BROWN,Ava.BROWN@staff.com,(565) 765-8723,(330) 933-8205,Payroll Specialist
Isabella,JOHNSON,Isabella.JOHNSON@staff.com,(120) 321-7388,(830) 482-1994,Payroll Clerk
Sophia,WILLIAMS,Sophia.WILLIAMS@staff.com,(446) 833-8060,(632) 992-3440,Human Resources Specialist
Mia,MILLER,Mia.MILLER@staff.com,(772) 256-9018,(156) 212-9755,Technical Recruiter
Amelia,TAYLOR,Amelia.TAYLOR@staff.com,(667) 751-5611,(705) 158-8395,Administrator Payroll
Harper,WILSON,Harper.WILSON@staff.com,(368) 223-3052,(848) 389-1944,Training Specialist
Charlotte,DAVIS,Charlotte.DAVIS@staff.com,(577) 686-2587,(907) 939-4029,Human Resources Coordinator
Mila,WHITE,Mila.WHITE@staff.com,(936) 201-1725,(333) 363-4948,Trainer
Aria,CLARK,Aria.CLARK@staff.com,(223) 158-0015,(255) 792-6419,Recruiter
Evelyn,HALL,Evelyn.HALL@staff.com,(939) 219-7393,(874) 343-9030,Human Resources Assistant
Abigail,THOMAS,Abigail.THOMAS@staff.com,(870) 962-3031,(871) 593-3152,Payroll Specialist
Ella,THOMPSON,Ella.THOMPSON@staff.com,(741) 240-0132,(887) 247-5418,Payroll Clerk
Avery,MOORE,Avery.MOORE@staff.com,(705) 654-9239,(316) 266-3560,Human Resources Specialist
Scarlett,HILL,Scarlett.HILL@staff.com,(393) 470-5167,(593) 247-7103,Technical Recruiter
Emily,WALKER,Emily.WALKER@staff.com,(785) 714-2657,(123) 220-2050,Administrator Payroll
Riley,ANDERSON,Riley.ANDERSON@staff.com,(702) 870-9608,(297) 283-7791,Training Specialist
Layla,WRIGHT,Layla.WRIGHT@staff.com,(136) 280-8427,(957) 204-0982,Human Resources Coordinator
Chloe,MARTIN,Chloe.MARTIN@staff.com,(853) 724-3640,(254) 292-7828,Trainer
Penelope,WOOD,Penelope.WOOD@staff.com,(376) 489-5297,(893) 414-7396,Marketing Manager
Sofia,ALLEN,Sofia.ALLEN@staff.com,(811) 649-2124,(557) 721-6908,Product Manager
Luna,ROBINSON,Luna.ROBINSON@staff.com,(697) 646-8284,(222) 239-2068,Business Development Manager
Zoey,LEWIS,Zoey.LEWIS@staff.com,(334) 808-1484,(654) 545-4219,Marketing Director
Ellie,SCOTT,Ellie.SCOTT@staff.com,(151) 498-3676,(381) 266-9804,Director Business Development
Elizabeth,YOUNG,Elizabeth.YOUNG@staff.com,(794) 172-9969,(691) 526-7804,Product Marketing Manager
Madison,JACKSON,Madison.JACKSON@staff.com,(950) 694-8247,(975) 670-9094,Senior Product Manager
Lily,ADAMS,Lily.ADAMS@staff.com,(679) 138-1656,(756) 967-1823,Account Manager
Grace,TRYNISKI,Grace.TRYNISKI@staff.com,(611) 186-7482,(318) 645-7659,Marketing
Bella,GREEN,Bella.GREEN@staff.com,(480) 423-9140,(806) 277-9750,Senior Marketing Manager
Aubrey,EVANS,Aubrey.EVANS@staff.com,(976) 290-0364,(439) 182-9819,Engineer
Aurora,KING,Aurora.KING@staff.com,(816) 777-0499,(355) 899-6389,Mechanical Engineer
Victoria,BAKER,Victoria.BAKER@staff.com,(372) 516-9337,(781) 227-1928,Electrical Engineer
Hannah,JOHN,Hannah.JOHN@staff.com,(183) 321-9491,(473) 567-6428,Manufacturing Engineer
Camila,HARRIS,Camila.HARRIS@staff.com,(313) 924-9083,(925) 915-0245,Quality Engineer
Nora,ROBERTS,Nora.ROBERTS@staff.com,(509) 470-8939,(916) 419-4212,Project Engineer
Stella,CAMPBELL,Stella.CAMPBELL@staff.com,(361) 632-3981,(229) 448-3750,Process Engineer
Paisley,JAMES,Paisley.JAMES@staff.com,(170) 473-4421,(184) 610-7797,Design Engineer
Addison,STEWART,Addison.STEWART@staff.com,(548) 296-1673,(150) 489-7108,Technician
Skylar,LEE,Skylar.LEE@staff.com,(404) 521-4142,(443) 305-9298,Accountant
Natalie,COUNTY,Natalie.COUNTY@staff.com,(344) 137-6050,(805) 348-6879,Senior Accountant
Hazel,TURNER,Hazel.TURNER@staff.com,(894) 351-4374,(169) 452-3084,Controller
Savannah,PARKER,Savannah.PARKER@staff.com,(353) 498-3295,(542) 721-1395,Financial Analyst
Emilia,COOK,Emilia.COOK@staff.com,(328) 793-0685,(474) 169-0024,Cost Accountant
Violet,MC,Violet.MC@staff.com,(143) 230-3887,(183) 837-3734,Accounting Manager
Zoe,EDWARDS,Zoe.EDWARDS@staff.com,(586) 453-9968,(176) 135-0756,Senior Financial Analyst
Elena,MORRIS,Elena.MORRIS@staff.com,(616) 128-2808,(281) 689-1792,Auditor
Eva,MITCHELL,Eva.MITCHELL@staff.com,(662) 389-4074,(575) 427-0833,Assistant Controller
Maya,BELL,Maya.BELL@staff.com,(635) 615-8102,(734) 732-3173,Tax Manager
Niamey,WARD,Niamey.WARD@staff.com,(220) 180-5672,(102) 964-8414,Accountant
Liam,WATSON,Liam.WATSON@staff.com,(838) 103-6320,(607) 875-2864,Senior Accountant
Noah,MORGAN,Noah.MORGAN@staff.com,(184) 788-3783,(371) 308-5015,Controller
Logan,DAVIES,Logan.DAVIES@staff.com,(638) 708-9056,(651) 707-2213,Financial Analyst
Oliver,COOPER,Oliver.COOPER@staff.com,(132) 311-2712,(318) 850-1552,Cost Accountant
Mason,PHILLIPS,Mason.PHILLIPS@staff.com,(390) 262-1117,(223) 720-7404,Accounting Manager
Lucas,ROGERS,Lucas.ROGERS@staff.com,(274) 889-6688,(676) 240-0295,Senior Financial Analyst
Ethan,GRAY,Ethan.GRAY@staff.com,(999) 643-4874,(574) 188-7689,Auditor
Elijah,HUGHES,Elijah.HUGHES@staff.com,(554) 734-3267,(607) 908-7386,Assistant Controller
Aiden,HARRISON,Aiden.HARRISON@staff.com,(537) 666-3332,(340) 857-9159,Tax Manager
James,CARTER,James.CARTER@staff.com,(993) 322-0269,(119) 219-4817,Project Manager
Carter,MURPHY,Carter.MURPHY@staff.com,(575) 931-5218,(331) 997-3143,Software Engineer
Alexander,COLLINS,Alexander.COLLINS@staff.com,(180) 635-5884,(562) 331-1264,Java Developer
Sebastian,HENRY,Sebastian.HENRY@staff.com,(135) 350-6179,(293) 292-7800,Business Analyst
Michael,FOSTER,Michael.FOSTER@staff.com,(367) 748-9002,(937) 107-9734,Systems Engineer
Jacob,RICHARDSON,Jacob.RICHARDSON@staff.com,(610) 276-8140,(990) 133-2667,Network Engineer
Jackson,RUSSELL,Jackson.RUSSELL@staff.com,(363) 810-5389,(626) 475-1510,Senior Software Engineer
William,HAMILTON,William.HAMILTON@staff.com,(941) 307-8715,(511) 625-0074,Web Developer
Benjamin,SHAW,Benjamin.SHAW@staff.com,(484) 838-8306,(827) 928-8931,.net Developer
Jayden,BENNETT,Jayden.BENNETT@staff.com,(145) 147-6368,(492) 734-6241,Systems Administrator
Gabriel,HOWARD,Gabriel.HOWARD@staff.com,(993) 664-1088,(440) 226-7477,Project Manager
Grayson,REED,Grayson.REED@staff.com,(811) 776-2496,(536) 672-6614,Software Engineer
Luke,FISHER,Luke.FISHER@staff.com,(958) 596-7470,(341) 449-6006,Java Developer
Owen,MARSHALL,Owen.MARSHALL@staff.com,(332) 734-6152,(136) 900-8231,Business Analyst
Matthew,MAY,Matthew.MAY@staff.com,(646) 927-4370,(938) 372-7883,Systems Engineer
Julian,CHURCH,Julian.CHURCH@staff.com,(194) 361-9789,(925) 895-9771,Network Engineer
Jack,WASHINGTON,Jack.WASHINGTON@staff.com,(535) 751-3414,(492) 253-6747,Senior Software Engineer
Daniel,KELLY,Daniel.KELLY@staff.com,(444) 884-4983,(737) 705-9329,Web Developer
Wyatt,PRICE,Wyatt.PRICE@staff.com,(955) 732-5736,(702) 702-3061,.net Developer
Henry,MURRAY,Henry.MURRAY@staff.com,(260) 182-4207,(923) 405-0885,Systems Administrator
Isaiah,WILLIAM,Isaiah.WILLIAM@staff.com,(665) 730-5841,(917) 635-7462,Process Engineer
Jaxon,PALMER,Jaxon.PALMER@staff.com,(742) 750-7446,(871) 922-3907,Design Engineer
Leo,STEVENS,Leo.STEVENS@staff.com,(165) 227-1818,(165) 104-4490,Technician
David,COX,David.COX@staff.com,(884) 379-6851,(980) 402-6985,Project Manager
Levi,ROBERTSON,Levi.ROBERTSON@staff.com,(241) 750-9732,(334) 212-4819,Software Engineer
Samuel,MISS,Samuel.MISS@staff.com,(271) 384-9446,(379) 932-6841,Java Developer
Mateo,CLARKE,Mateo.CLARKE@staff.com,(537) 485-5151,(757) 511-2764,Business Analyst
Lincoln,BAILEY,Lincoln.BAILEY@staff.com,(633) 874-6063,(132) 422-9242,Systems Engineer
Ryan,GEORGE,Ryan.GEORGE@staff.com,(712) 589-3815,(891) 790-2759,Network Engineer
Anthony,NELSON,Anthony.NELSON@staff.com,(380) 949-4954,(465) 995-0521,Senior Software Engineer
Hunter,MASON,Hunter.MASON@staff.com,(530) 449-8665,(280) 129-2550,Web Developer
Isaac,BUTLER,Isaac.BUTLER@staff.com,(212) 960-5563,(870) 692-4483,.net Developer
Adam,MILLS,Adam.MILLS@staff.com,(582) 187-7132,(412) 555-6555,Systems Administrator
Muhammad,HUNT,Muhammad.HUNT@staff.com,(766) 555-7020,(332) 998-1094,Manufacturing Engineer
Nathan,ISLAND,Nathan.ISLAND@staff.com,(583) 802-3753,(766) 979-6514,Quality Engineer
John,SIMPSON,John.SIMPSON@staff.com,(948) 846-6455,(148) 641-9517,Project Engineer
Caleb,GRAHAM,Caleb.GRAHAM@staff.com,(747) 513-5904,(649) 655-3874,Process Engineer
Josiah,HENDERSON,Josiah.HENDERSON@staff.com,(245) 108-3112,(156) 943-2781,Design Engineer
Dylan,ROSS,Dylan.ROSS@staff.com,(644) 201-8337,(508) 295-6072,Technician
Joseph,STONE,Joseph.STONE@staff.com,(683) 129-9072,(986) 208-7462,Project Manager
Adrian,PORTER,Adrian.PORTER@staff.com,(802) 390-3430,(412) 925-2908,Software Engineer
Aurora,WALLACE,Aurora.WALLACE@staff.com,(496) 484-4792,(431) 266-1542,Java Developer
Victoria,KENNEDY,Victoria.KENNEDY@staff.com,(766) 129-8426,(726) 905-1317,Business Analyst
Hannah,GIBSON,Hannah.GIBSON@staff.com,(392) 605-9496,(341) 788-4275,Systems Engineer
Camila,WEST,Camila.WEST@staff.com,(303) 439-3559,(362) 286-6257,Network Engineer
Nora,BROOKS,Nora.BROOKS@staff.com,(879) 989-6051,(807) 803-6447,Senior Software Engineer
Stella,ELLIS,Stella.ELLIS@staff.com,(869) 184-9069,(703) 627-3535,Web Developer
Paisley,BARNES,Paisley.BARNES@staff.com,(525) 323-7027,(130) 763-4014,.net Developer
Addison,JOHNSTON,Addison.JOHNSTON@staff.com,(121) 958-6222,(490) 533-8883,Systems Administrator
Skylar,SULLIVAN,Skylar.SULLIVAN@staff.com,(954) 825-7299,(146) 506-4480,Quality Engineer
Natalie,WELLS,Natalie.WELLS@staff.com,(779) 227-4000,(367) 810-9690,Project Engineer
Hazel,HART,Hazel.HART@staff.com,(555) 793-5578,(700) 878-9828,Process Engineer
Savannah,FORD,Savannah.FORD@staff.com,(520) 226-1610,(625) 574-2665,Design Engineer
Emilia,REYNOLDS,Emilia.REYNOLDS@staff.com,(613) 963-2822,(307) 722-3110,Technician
Violet,ALEXANDER,Violet.ALEXANDER@staff.com,(973) 896-3196,(958) 976-0071,Project Manager
Zoe,CO,Zoe.CO@staff.com,(817) 209-9109,(248) 760-5920,Software Engineer
Elena,COLE,Elena.COLE@staff.com,(120) 141-4162,(120) 198-7290,Java Developer
Eva,FOX,Eva.FOX@staff.com,(644) 438-7421,(877) 158-6393,Business Analyst
Maya,HOLMES,Maya.HOLMES@staff.com,(127) 118-2625,(408) 942-7174,Systems Engineer
Niamey,DAY,Niamey.DAY@staff.com,(601) 717-5908,(988) 421-1067,Network Engineer
Liam,CHAPMAN,Liam.CHAPMAN@staff.com,(292) 129-2651,(210) 474-7628,Senior Software Engineer
Noah,POWELL,Noah.POWELL@staff.com,(193) 171-5363,(505) 132-3886,Project Manager
Logan,WEBSTER,Logan.WEBSTER@staff.com,(290) 349-8875,(917) 973-9861,Software Engineer
Oliver,LONG,Oliver.LONG@staff.com,(475) 988-5730,(694) 445-0342,Java Developer
Mason,RICHARDS,Mason.RICHARDS@staff.com,(773) 535-6545,(586) 128-5633,Business Analyst
Lucas,GRANT,Lucas.GRANT@staff.com,(634) 476-7606,(813) 754-7652,Systems Engineer
Ethan,HUNTER,Ethan.HUNTER@staff.com,(935) 440-9397,(291) 134-6898,Network Engineer
Elijah,WEBB,Elijah.WEBB@staff.com,(710) 919-9960,(741) 477-9149,Senior Software Engineer
Aiden,THOMSON,Aiden.THOMSON@staff.com,(710) 611-3462,(320) 536-6430,Web Developer
James,WM,James.WM@staff.com,(948) 404-3975,(620) 282-1054,.net Developer
Carter,LINCOLN,Carter.LINCOLN@staff.com,(698) 687-9646,(676) 384-6102,Systems Administrator
Alexander,GORDON,Alexander.GORDON@staff.com,(776) 527-1651,(307) 389-1718,Project Engineer
Sebastian,WHEELER,Sebastian.WHEELER@staff.com,(832) 281-2899,(159) 881-7283,Process Engineer
Michael,STREET,Michael.STREET@staff.com,(706) 740-0346,(928) 320-8522,Design Engineer
Jacob,PERRY,Jacob.PERRY@staff.com,(516) 875-1219,(149) 663-8598,Project Manager
Jackson,BLACK,Jackson.BLACK@staff.com,(516) 402-3737,(500) 814-9523,Software Engineer
Layla,LANE,Layla.LANE@staff.com,(602) 854-7640,(161) 532-2063,Java Developer
Chloe,GARDNER,Chloe.GARDNER@staff.com,(403) 915-5811,(379) 649-6754,Business Analyst
Penelope,CITY,Penelope.CITY@staff.com,(492) 177-0298,(345) 225-4903,Systems Engineer
Sofia,LAWRENCE,Sofia.LAWRENCE@staff.com,(697) 144-9832,(879) 803-8081,Network Engineer
Luna,ANDREWS,Luna.ANDREWS@staff.com,(286) 450-9868,(260) 716-9254,Senior Software Engineer
Muhammad,WARREN,Muhammad.WARREN@staff.com,(443) 671-8888,(653) 962-7219,Web Developer
Nathan,SPENCER,Nathan.SPENCER@staff.com,(588) 703-5460,(665) 508-2609,Project Manager
John,RICE,John.RICE@staff.com,(174) 705-6721,(997) 550-5676,Software Engineer
Caleb,JENKINS,Caleb.JENKINS@staff.com,(799) 256-0413,(728) 982-7890,Java Developer
Josiah,KNIGHT,Josiah.KNIGHT@staff.com,(764) 634-3758,(438) 258-9955,Business Analyst
Dylan,ARMSTRONG,Dylan.ARMSTRONG@staff.com,(291) 164-4524,(313) 772-4490,Systems Engineer
Joseph,BURNS,Joseph.BURNS@staff.com,(687) 160-0235,(915) 201-9394,Network Engineer
Adrian,BARKER,Adrian.BARKER@staff.com,(723) 317-1503,(147) 889-6604,Senior Software Engineer
Liam,DUNN,Liam.DUNN@staff.com,(696) 564-5842,(986) 537-8270,Web Developer
Noah,REID,Noah.REID@staff.com,(819) 527-9015,(430) 127-2369,.net Developer
